[
    {
        "id": "29031d7b94908b72",
        "type": "tab",
        "label": "Flow 1",
        "disabled": false,
        "info": "",
        "env": []
    },
    {
        "id": "c2080aa63720844a",
        "type": "mqtt-broker",
        "name": "",
        "broker": "broker",
        "port": "1883",
        "clientid": "",
        "autoConnect": true,
        "usetls": false,
        "protocolVersion": "4",
        "keepalive": "60",
        "cleansession": true,
        "birthTopic": "",
        "birthQos": "0",
        "birthPayload": "",
        "birthMsg": {},
        "closeTopic": "",
        "closeQos": "0",
        "closePayload": "",
        "closeMsg": {},
        "willTopic": "",
        "willQos": "0",
        "willPayload": "",
        "willMsg": {},
        "userProps": "",
        "sessionExpiry": ""
    },
    {
        "id": "66d3429d61b380a2",
        "type": "mongodb4-client",
        "name": "",
        "protocol": "mongodb",
        "hostname": "mongoServer",
        "port": "",
        "dbName": "test",
        "authSource": "",
        "authMechanism": "DEFAULT",
        "tls": false,
        "tlsCAFile": "",
        "tlsInsecure": false,
        "uri": "",
        "advanced": "",
        "uriTabActive": "tab-uri-simple"
    },
    {
        "id": "b7e9cc2efeefede2",
        "type": "mqtt-broker",
        "name": "mqtt",
        "broker": "broker",
        "port": "1883",
        "clientid": "",
        "autoConnect": true,
        "usetls": false,
        "protocolVersion": "4",
        "keepalive": "60",
        "cleansession": true,
        "birthTopic": "",
        "birthQos": "0",
        "birthRetain": "false",
        "birthPayload": "",
        "birthMsg": {},
        "closeTopic": "",
        "closeQos": "0",
        "closeRetain": "false",
        "closePayload": "",
        "closeMsg": {},
        "willTopic": "",
        "willQos": "0",
        "willRetain": "false",
        "willPayload": "",
        "willMsg": {},
        "sessionExpiry": ""
    },
    {
        "id": "f244d277f6559731",
        "type": "mongodb4-client",
        "name": "",
        "protocol": "mongodb",
        "hostname": "mongo-S7",
        "port": "",
        "dbName": "iot",
        "authSource": "",
        "authMechanism": "DEFAULT",
        "tls": false,
        "tlsCAFile": "",
        "tlsInsecure": false,
        "uri": "",
        "advanced": "",
        "uriTabActive": "tab-uri-simple"
    },
    {
        "id": "dee5f2f22e7df9f7",
        "type": "ui_tab",
        "name": "Greenhouse",
        "icon": "dashboard",
        "order": 3,
        "disabled": false,
        "hidden": false
    },
    {
        "id": "6052b0c4c231f11b",
        "type": "ui_group",
        "name": "Greenhouse",
        "tab": "dee5f2f22e7df9f7",
        "order": 1,
        "disp": true,
        "width": "6",
        "collapse": false,
        "className": ""
    },
    {
        "id": "8c8ccbec18581a41",
        "type": "ui_base",
        "theme": {
            "name": "theme-light",
            "lightTheme": {
                "default": "#0094CE",
                "baseColor": "#0094CE",
                "baseFont": "-apple-system,BlinkMacSystemFont,Segoe UI,Roboto,Oxygen-Sans,Ubuntu,Cantarell,Helvetica Neue,sans-serif",
                "edited": false
            },
            "darkTheme": {
                "default": "#097479",
                "baseColor": "#097479",
                "baseFont": "-apple-system,BlinkMacSystemFont,Segoe UI,Roboto,Oxygen-Sans,Ubuntu,Cantarell,Helvetica Neue,sans-serif",
                "edited": false
            },
            "customTheme": {
                "name": "Untitled Theme 1",
                "default": "#4B7930",
                "baseColor": "#4B7930",
                "baseFont": "-apple-system,BlinkMacSystemFont,Segoe UI,Roboto,Oxygen-Sans,Ubuntu,Cantarell,Helvetica Neue,sans-serif"
            },
            "themeState": {
                "base-color": {
                    "default": "#0094CE",
                    "value": "#0094CE",
                    "edited": false
                },
                "page-titlebar-backgroundColor": {
                    "value": "#0094CE",
                    "edited": false
                },
                "page-backgroundColor": {
                    "value": "#fafafa",
                    "edited": false
                },
                "page-sidebar-backgroundColor": {
                    "value": "#ffffff",
                    "edited": false
                },
                "group-textColor": {
                    "value": "#1bbfff",
                    "edited": false
                },
                "group-borderColor": {
                    "value": "#ffffff",
                    "edited": false
                },
                "group-backgroundColor": {
                    "value": "#ffffff",
                    "edited": false
                },
                "widget-textColor": {
                    "value": "#111111",
                    "edited": false
                },
                "widget-backgroundColor": {
                    "value": "#0094ce",
                    "edited": false
                },
                "widget-borderColor": {
                    "value": "#ffffff",
                    "edited": false
                },
                "base-font": {
                    "value": "-apple-system,BlinkMacSystemFont,Segoe UI,Roboto,Oxygen-Sans,Ubuntu,Cantarell,Helvetica Neue,sans-serif"
                }
            },
            "angularTheme": {
                "primary": "indigo",
                "accents": "blue",
                "warn": "red",
                "background": "grey",
                "palette": "light"
            }
        },
        "site": {
            "name": "Node-RED Dashboard",
            "hideToolbar": "false",
            "allowSwipe": "false",
            "lockMenu": "false",
            "allowTempTheme": "true",
            "dateFormat": "DD/MM/YYYY",
            "sizes": {
                "sx": 48,
                "sy": 48,
                "gx": 6,
                "gy": 6,
                "cx": 6,
                "cy": 6,
                "px": 0,
                "py": 0
            }
        }
    },
    {
        "id": "97e95970293496d7",
        "type": "http in",
        "z": "29031d7b94908b72",
        "name": "",
        "url": "/testURL",
        "method": "get",
        "upload": false,
        "swaggerDoc": "",
        "x": 250,
        "y": 280,
        "wires": [
            [
                "d775a36c64024d3a"
            ]
        ]
    },
    {
        "id": "d775a36c64024d3a",
        "type": "function",
        "z": "29031d7b94908b72",
        "name": "function 1",
        "func": "msg.payload={\n    status: \"Ok\",\n    message: \"Hallou world!\",\n    timestamp: new Date().getTime()\n}\nreturn msg;",
        "outputs": 1,
        "noerr": 0,
        "initialize": "",
        "finalize": "",
        "libs": [],
        "x": 480,
        "y": 280,
        "wires": [
            [
                "d3c3dacfbbb7b238"
            ]
        ]
    },
    {
        "id": "d3c3dacfbbb7b238",
        "type": "http response",
        "z": "29031d7b94908b72",
        "name": "",
        "statusCode": "",
        "headers": {},
        "x": 690,
        "y": 280,
        "wires": []
    },
    {
        "id": "2b1c4a6737537781",
        "type": "mqtt in",
        "z": "29031d7b94908b72",
        "name": "",
        "topic": "testTopic",
        "qos": "2",
        "datatype": "json",
        "broker": "c2080aa63720844a",
        "nl": false,
        "rap": true,
        "rh": 0,
        "inputs": 0,
        "x": 240,
        "y": 200,
        "wires": [
            [
                "3768d5d118298d99"
            ]
        ]
    },
    {
        "id": "3768d5d118298d99",
        "type": "debug",
        "z": "29031d7b94908b72",
        "name": "debug 1",
        "active": true,
        "tosidebar": true,
        "console": false,
        "tostatus": false,
        "complete": "false",
        "statusVal": "",
        "statusType": "auto",
        "x": 480,
        "y": 200,
        "wires": []
    },
    {
        "id": "dafac438a8a4dd38",
        "type": "mongodb4",
        "z": "29031d7b94908b72",
        "clientNode": "66d3429d61b380a2",
        "collection": "test",
        "operation": "insertOne",
        "output": "toArray",
        "name": "",
        "x": 600,
        "y": 360,
        "wires": [
            [
                "20e12a7fb61af64f"
            ]
        ]
    },
    {
        "id": "fd61321e8533d1f7",
        "type": "inject",
        "z": "29031d7b94908b72",
        "name": "",
        "props": [
            {
                "p": "payload"
            },
            {
                "p": "topic",
                "vt": "str"
            }
        ],
        "repeat": "",
        "crontab": "",
        "once": true,
        "onceDelay": 0.1,
        "topic": "",
        "payload": "",
        "payloadType": "date",
        "x": 270,
        "y": 360,
        "wires": [
            [
                "df4f2dd28f6631df"
            ]
        ]
    },
    {
        "id": "20e12a7fb61af64f",
        "type": "debug",
        "z": "29031d7b94908b72",
        "name": "debug 2",
        "active": true,
        "tosidebar": true,
        "console": false,
        "tostatus": false,
        "complete": "false",
        "statusVal": "",
        "statusType": "auto",
        "x": 740,
        "y": 360,
        "wires": []
    },
    {
        "id": "df4f2dd28f6631df",
        "type": "function",
        "z": "29031d7b94908b72",
        "name": "function 2",
        "func": "msg.payload=[{\n    name:\"meno\",\n    priezvisko: \"adasda\"\n}]\nreturn msg;",
        "outputs": 1,
        "noerr": 0,
        "initialize": "",
        "finalize": "",
        "libs": [],
        "x": 440,
        "y": 360,
        "wires": [
            [
                "dafac438a8a4dd38"
            ]
        ]
    },
    {
        "id": "395e6d5a95b73901",
        "type": "comment",
        "z": "29031d7b94908b72",
        "name": "MQTT example",
        "info": "MQTT example",
        "x": 260,
        "y": 160,
        "wires": []
    },
    {
        "id": "3e5454d7fc25e07c",
        "type": "comment",
        "z": "29031d7b94908b72",
        "name": "HTTP REST-api",
        "info": "MQTT example",
        "x": 380,
        "y": 240,
        "wires": []
    },
    {
        "id": "273293616e6ab1f3",
        "type": "comment",
        "z": "29031d7b94908b72",
        "name": "Database example",
        "info": "MQTT example",
        "x": 550,
        "y": 320,
        "wires": []
    }
]